…
``` r
scdb_case <- scdb_case %>% 
  mutate(decisionDirection_recode = case_when(
    decisionDirection == 1 ~ 0,
    decisionDirection == 2 ~ 1,
    decisionDirection == 3 ~ NA,
    is.na(decisionDirection) ~ NA))

print(scdb_case)
```

    ## # A tibble: 28,981 × 53
    ##    caseId docketId caseIssuesId dateDecision decisionType usCite sctCite ledCite
    ##    <chr>  <chr>    <chr>        <chr>               <dbl> <chr>  <chr>   <chr>  
    ##  1 1791-… 1791-00… 1791-001-01… 8/3/1791                6 2 U.S… <NA>    1 L. E…
    ##  2 1791-… 1791-00… 1791-002-01… 8/3/1791                2 2 U.S… <NA>    1 L. E…
    ##  3 1792-… 1792-00… 1792-001-01… 2/14/1792               2 2 U.S… <NA>    1 L. E…
    ##  4 1792-… 1792-00… 1792-002-01… 8/7/1792                2 2 U.S… <NA>    1 L. E…
    ##  5 1792-… 1792-00… 1792-003-01… 8/11/1792               8 2 U.S… <NA>    1 L. E…
    ##  6 1792-… 1792-00… 1792-004-01… 8/11/1792               6 2 U.S… <NA>    1 L. E…
    ##  7 1793-… 1793-00… 1793-001-01… 2/19/1793               8 2 U.S… <NA>    1 L. E…
    ##  8 1793-… 1793-00… 1793-002-01… 2/20/1793               2 2 U.S… <NA>    1 L. E…
    ##  9 1793-… 1793-00… 1793-003-01… 2/20/1793               8 2 U.S… <NA>    1 L. E…
    ## 10 1794-… 1794-00… 1794-001-01… 2/7/1794               NA 3 U.S… <NA>    1 L. E…
    ## # ℹ 28,971 more rows
    ## # ℹ 45 more variables: lexisCite <chr>, term <dbl>, naturalCourt <dbl>,
    ## #   chief <chr>, docket <chr>, caseName <chr>, dateArgument <chr>,
    ## #   dateRearg <chr>, petitioner <dbl>, petitionerState <dbl>, respondent <dbl>,
    ## #   respondentState <dbl>, jurisdiction <dbl>, adminAction <dbl>,
    ## #   adminActionState <dbl>, threeJudgeFdc <dbl>, caseOrigin <dbl>,
    ## #   caseOriginState <dbl>, caseSource <dbl>, caseSourceState <dbl>, …
…
`majority`: this variable takes two values (1 dissent, 2 majority; see
[documentation](http://scdb.wustl.edu/documentation.php?var=majority).
Recode it so dissent becomes 0 and majority becomes 1; leave the missing
data unchanged

``` r
scdb_vote <- scdb_vote %>% 
  mutate(majority_recode = case_when(
    majority == 1 ~ 0,
    majority == 2 ~ 1))
print(scdb_vote)
```

    ## # A tibble: 253,643 × 14
    ##    caseId   docketId caseIssuesId voteId  term justice justiceName  vote opinion
    ##    <chr>    <chr>    <chr>        <chr>  <dbl>   <dbl> <chr>       <dbl>   <dbl>
    ##  1 1791-001 1791-00… 1791-001-01… 1791-…  1791       1 JJay            1       1
    ##  2 1791-001 1791-00… 1791-001-01… 1791-…  1791       3 WCushing        1       1
    ##  3 1791-001 1791-00… 1791-001-01… 1791-…  1791       4 JWilson         1       1
    ##  4 1791-001 1791-00… 1791-001-01… 1791-…  1791       5 JBlair          1       1
    ##  5 1791-001 1791-00… 1791-001-01… 1791-…  1791       6 JIredell        1       1
    ##  6 1791-002 1791-00… 1791-002-01… 1791-…  1791       1 JJay            1       1
    ##  7 1791-002 1791-00… 1791-002-01… 1791-…  1791       3 WCushing        1       1
    ##  8 1791-002 1791-00… 1791-002-01… 1791-…  1791       4 JWilson         1       1
    ##  9 1791-002 1791-00… 1791-002-01… 1791-…  1791       5 JBlair          1       1
    ## 10 1791-002 1791-00… 1791-002-01… 1791-…  1791       6 JIredell        1       1
    ## # ℹ 253,633 more rows
    ## # ℹ 5 more variables: direction <dbl>, majority <dbl>, firstAgreement <dbl>,
    ## #   secondAgreement <dbl>, majority_recode <dbl>
…
`direction`: this variable takes two values (1 conservative, 2 liberal);
see the
[documentation](http://scdb.wustl.edu/documentation.php?var=direction).
Recode it so conservative becomes 0 and liberal becomes 1; leave the
missing data unchanged

``` r
scdb_vote <- scdb_vote %>% 
  mutate(direction_recode = case_when(
    direction == 1 ~ 0,
    direction == 2 ~ 1))
print(scdb_vote)
```

    ## # A tibble: 253,643 × 15
    ##    caseId   docketId caseIssuesId voteId  term justice justiceName  vote opinion
    ##    <chr>    <chr>    <chr>        <chr>  <dbl>   <dbl> <chr>       <dbl>   <dbl>
    ##  1 1791-001 1791-00… 1791-001-01… 1791-…  1791       1 JJay            1       1
    ##  2 1791-001 1791-00… 1791-001-01… 1791-…  1791       3 WCushing        1       1
    ##  3 1791-001 1791-00… 1791-001-01… 1791-…  1791       4 JWilson         1       1
    ##  4 1791-001 1791-00… 1791-001-01… 1791-…  1791       5 JBlair          1       1
    ##  5 1791-001 1791-00… 1791-001-01… 1791-…  1791       6 JIredell        1       1
    ##  6 1791-002 1791-00… 1791-002-01… 1791-…  1791       1 JJay            1       1
    ##  7 1791-002 1791-00… 1791-002-01… 1791-…  1791       3 WCushing        1       1
    ##  8 1791-002 1791-00… 1791-002-01… 1791-…  1791       4 JWilson         1       1
    ##  9 1791-002 1791-00… 1791-002-01… 1791-…  1791       5 JBlair          1       1
    ## 10 1791-002 1791-00… 1791-002-01… 1791-…  1791       6 JIredell        1       1
    ## # ℹ 253,633 more rows
    ## # ℹ 6 more variables: direction <dbl>, majority <dbl>, firstAgreement <dbl>,
    ## #   secondAgreement <dbl>, majority_recode <dbl>, direction_recode <dbl>
…
    ## [1] "character"

``` r
scdb_case <- 
  scdb_case %>% 
  mutate(chief_factor = factor(chief, levels = chief_levels))
print(scdb_case)
```

    ## # A tibble: 28,981 × 54
    ##    caseId docketId caseIssuesId dateDecision decisionType usCite sctCite ledCite
    ##    <chr>  <chr>    <chr>        <chr>               <dbl> <chr>  <chr>   <chr>  
    ##  1 1791-… 1791-00… 1791-001-01… 8/3/1791                6 2 U.S… <NA>    1 L. E…
    ##  2 1791-… 1791-00… 1791-002-01… 8/3/1791                2 2 U.S… <NA>    1 L. E…
    ##  3 1792-… 1792-00… 1792-001-01… 2/14/1792               2 2 U.S… <NA>    1 L. E…
    ##  4 1792-… 1792-00… 1792-002-01… 8/7/1792                2 2 U.S… <NA>    1 L. E…
    ##  5 1792-… 1792-00… 1792-003-01… 8/11/1792               8 2 U.S… <NA>    1 L. E…
    ##  6 1792-… 1792-00… 1792-004-01… 8/11/1792               6 2 U.S… <NA>    1 L. E…
    ##  7 1793-… 1793-00… 1793-001-01… 2/19/1793               8 2 U.S… <NA>    1 L. E…
    ##  8 1793-… 1793-00… 1793-002-01… 2/20/1793               2 2 U.S… <NA>    1 L. E…
    ##  9 1793-… 1793-00… 1793-003-01… 2/20/1793               8 2 U.S… <NA>    1 L. E…
    ## 10 1794-… 1794-00… 1794-001-01… 2/7/1794               NA 3 U.S… <NA>    1 L. E…
    ## # ℹ 28,971 more rows
    ## # ℹ 46 more variables: lexisCite <chr>, term <dbl>, naturalCourt <dbl>,
    ## #   chief <chr>, docket <chr>, caseName <chr>, dateArgument <chr>,
    ## #   dateRearg <chr>, petitioner <dbl>, petitionerState <dbl>, respondent <dbl>,
    ## #   respondentState <dbl>, jurisdiction <dbl>, adminAction <dbl>,
    ## #   adminActionState <dbl>, threeJudgeFdc <dbl>, caseOrigin <dbl>,
    ## #   caseOriginState <dbl>, caseSource <dbl>, caseSourceState <dbl>, …
…
                        "FFrankfurter", "WODouglas", "FMurphy", "JFByrnes", "RHJackson",
                        "WBRutledge", "HHBurton", "FMVinson", "TCClark", "SMinton", 
                        "EWarren", "JHarlan2", "WJBrennan", "CEWhittaker", "PStewart", 
                        "BRWhite", "AJGoldberg", "AFortas", "TMarshall", "WEBurger",
                        "HABlackmun", "LFPowell", "WHRehnquist", "JPStevens", "SDOConnor",
                        "AScalia", "AMKennedy", "DHSouter", "CThomas", "RBGinsburg", 
                        "SGBreyer", "JGRoberts", "SAAlito", "SSotomayor", "EKagan", 
                        "NMGorsuch", "BMKavanaugh", "ACBarrett")
scdb_vote <- scdb_vote %>% 
  arrange(justice) %>% 
  mutate(justiceName_factor = factor(justiceName, levels = justiceName_levels))
print(scdb_vote)
```

    ## # A tibble: 253,643 × 16
    ##    caseId   docketId caseIssuesId voteId  term justice justiceName  vote opinion
    ##    <chr>    <chr>    <chr>        <chr>  <dbl>   <dbl> <chr>       <dbl>   <dbl>
    ##  1 1918-233 1918-23… 1918-233-01… NULL    1918     -99 -99            NA      NA
    ##  2 1931-152 1931-15… 1931-152-01… NULL    1931     -99 -99            NA      NA
    ##  3 1915-245 1915-24… 1915-245-01… NULL    1915     -99 -99            NA      NA
    ##  4 1908-203 1908-20… 1908-203-01… NULL    1908     -99 -99            NA      NA
    ##  5 1898-184 1898-18… 1898-184-01… NULL    1898     -99 -99            NA      NA
    ##  6 1896-274 1896-27… 1896-274-01… NULL    1896     -99 -99            NA      NA
    ##  7 1922-231 1922-23… 1922-231-01… NULL    1922     -99 -99            NA      NA
    ##  8 1898-187 1898-18… 1898-187-01… NULL    1898     -99 -99            NA      NA
    ##  9 1901-204 1901-20… 1901-204-01… NULL    1901     -99 -99            NA      NA
    ## 10 1898-189 1898-18… 1898-189-01… NULL    1898     -99 -99            NA      NA
    ## # ℹ 253,633 more rows
    ## # ℹ 7 more variables: direction <dbl>, majority <dbl>, firstAgreement <dbl>,
    ## #   secondAgreement <dbl>, majority_recode <dbl>, direction_recode <dbl>,
    ## #   justiceName_factor <fct>

``` r
before_recode_jN <- scdb_vote %>%
  count(justiceName, name = "total_observations_before")
after_recode_jN <- scdb_vote %>%
  count(justiceName_factor, name = "total_observations_after")
comparison_jN <- left_join(before_recode_jN, after_recode_jN, 
                        by = c("justiceName" = "justiceName_factor"))
comparison_jN
```

    ## # A tibble: 117 × 3
    ##    justiceName total_observations_before total_observations_after
    ##    <chr>                           <int>                    <int>
    ##  1 -99                                25                       NA
    ##  2 ACBarrett                          65                       65
    ##  3 AFortas                           581                      581
    ##  4 AJGoldberg                        475                      475
    ##  5 AMKennedy                        2883                     2883
    ##  6 AMoore                             29                       29
    ##  7 AScalia                          2861                     2861
    ##  8 BMKavanaugh                       198                      198
    ##  9 BNCardozo                        1084                     1084
    ## 10 BRCurtis                          465                      465
    ## # ℹ 107 more rows
…
Task 2 Question 1. Calculate the average number of minority (dissenting)
votes cast per term using the appropriate variables (inspect the
documentation to identify them). Exclude any missing values from your
calculation using methods learned in the course. Provide a few sentences
to explain the results (e.g., what does an average of 0.1 mean for a
given year? what is the highest and lowest and what do they mean? etc.)

``` r
dissent_per_term <- scdb_case %>% 
  group_by(term) %>% 
  summarize(avg_dissent = mean(minVotes, na.rm = TRUE))
print(dissent_per_term)
```

    ## # A tibble: 228 × 2
    ##     term avg_dissent
    ##    <dbl>       <dbl>
    ##  1  1791      0     
    ##  2  1792      0.5   
    ##  3  1793      0.667 
    ##  4  1794      0     
    ##  5  1795      0.833 
    ##  6  1796      0.0625
    ##  7  1797      0     
    ##  8  1798      0.167 
    ##  9  1799      0     
    ## 10  1800      0     
    ## # ℹ 218 more rows
…
Which justice has voted the most conservatively?

``` r
most_conservative <- combined_scdb %>% 
  group_by(justiceName_factor) %>% 
  summarize(conservative_count = 
              sum(direction_recode == 0, 
                  na.rm = TRUE)) %>% 
  arrange(desc(conservative_count))
print(most_conservative)
```

    ## # A tibble: 117 × 2
    ##    justiceName_factor conservative_count
    ##    <fct>                           <int>
    ##  1 WHRehnquist                      3010
    ##  2 JHarlan1                         2973
    ##  3 SJField                          2705
    ##  4 EDEWhite                         2603
    ##  5 OWHolmes                         2603
    ##  6 JMcKenna                         2487
    ##  7 BRWhite                          2406
    ##  8 WVanDevanter                     2390
    ##  9 JCMcReynolds                     2182
    ## 10 MWFuller                         2005
    ## # ℹ 107 more rows
…
``` r
current_justices <- c("CThomas", "JGRoberts", "SAAlito", 
                      "SSotomayor", "EKagan", "NMGorsuch", 
                      "BMKavanaugh", "ACBarrett")
relevant_issues <- c(1, 2, 8, 12)
relevant_cases <- scdb_case %>% 
  filter(issueArea %in% relevant_issues) %>% 
  inner_join(scdb_vote, by = "caseId") %>% 
  filter(justiceName %in% current_justices)
relevant_cases
```

    ## # A tibble: 4,728 × 69
    ##    caseId   docketId.x  caseIssuesId.x dateDecision decisionType usCite  sctCite
    ##    <chr>    <chr>       <chr>          <chr>               <dbl> <chr>   <chr>  
    ##  1 1991-003 1991-003-01 1991-003-01-01 11/4/1991               2 502 U.… 112 S.…
    ##  2 1991-004 1991-004-01 1991-004-01-01 11/5/1991               1 502 U.… 112 S.…
    ##  3 1991-007 1991-007-01 1991-007-01-01 12/4/1991               1 502 U.… 112 S.…
    ##  4 1991-008 1991-008-01 1991-008-01-01 12/4/1991               1 502 U.… 112 S.…
    ##  5 1991-009 1991-009-01 1991-009-01-01 12/4/1991               1 502 U.… 112 S.…
    ##  6 1991-013 1991-013-01 1991-013-01-01 12/11/1991              1 502 U.… 112 S.…
    ##  7 1991-015 1991-015-01 1991-015-01-01 12/16/1991              1 502 U.… 112 S.…
    ##  8 1991-016 1991-016-01 1991-016-01-01 12/15/1991              1 502 U.… 112 S.…
    ##  9 1991-017 1991-017-01 1991-017-01-01 12/16/1991              1 502 U.… 112 S.…
    ## 10 1991-018 1991-018-01 1991-018-01-01 12/16/1991              2 502 U.… 112 S.…
    ## # ℹ 4,718 more rows
    ## # ℹ 62 more variables: ledCite <chr>, lexisCite <chr>, term.x <dbl>,
    ## #   naturalCourt <dbl>, chief <chr>, docket <chr>, caseName <chr>,
    ## #   dateArgument <chr>, dateRearg <chr>, petitioner <dbl>,
    ## #   petitionerState <dbl>, respondent <dbl>, respondentState <dbl>,
    ## #   jurisdiction <dbl>, adminAction <dbl>, adminActionState <dbl>,
    ## #   threeJudgeFdc <dbl>, caseOrigin <dbl>, caseOriginState <dbl>, …
…
    ## `summarise()` has grouped output by 'justiceName'. You can override using the
    ## `.groups` argument.

``` r
justice_conservative
```

    ## # A tibble: 32 × 5
    ##    justiceName issueArea total_votes conservative_votes conservative_pct
    ##    <chr>           <dbl>       <int>              <int>            <dbl>
    ##  1 ACBarrett           1          16                 10             62.5
    ##  2 ACBarrett           2           9                  6             66.7
    ##  3 ACBarrett           8          13                  8             61.5
    ##  4 ACBarrett          12           1                  1            100  
    ##  5 BMKavanaugh         1          39                 24             61.5
    ##  6 BMKavanaugh         2          31                 20             64.5
    ##  7 BMKavanaugh         8          52                 27             51.9
    ##  8 BMKavanaugh        12           3                  1             33.3
    ##  9 CThomas             1         660                510             77.3
    ## 10 CThomas             2         424                308             72.6
    ## # ℹ 22 more rows
…
relevant_states <- scdb_case %>% 
  filter(petitionerState %in% states_of_interest | respondentState %in% states_of_interest)

relevant_states <- relevant_states %>%
  mutate(same_state = case_when(
    petitionerState == respondentState ~ "Same State",
    TRUE ~ "Different States"))
```

``` r
relevant_states
```

    ## # A tibble: 1,920 × 55
    ##    caseId docketId caseIssuesId dateDecision decisionType usCite sctCite ledCite
    ##    <chr>  <chr>    <chr>        <chr>               <dbl> <chr>  <chr>   <chr>  
    ##  1 1792-… 1792-00… 1792-001-01… 2/14/1792               2 2 U.S… <NA>    1 L. E…
    ##  2 1792-… 1792-00… 1792-002-01… 8/7/1792                2 2 U.S… <NA>    1 L. E…
    ##  3 1793-… 1793-00… 1793-002-01… 2/20/1793               2 2 U.S… <NA>    1 L. E…
    ##  4 1799-… 1799-00… 1799-005-01… 8/9/1799                1 4 U.S… <NA>    1 L. E…
    ##  5 1828-… 1828-00… 1828-001-01… 1/19/1828               1 26 U.… <NA>    7 L. E…
    ##  6 1830-… 1830-03… 1830-037-01… 3/6/1830                1 28 U.… <NA>    7 L. E…
    ##  7 1831-… 1831-02… 1831-021-01… 2/11/1831               1 30 U.… <NA>    8 L. E…
    ##  8 1832-… 1832-02… 1832-020-01… 1/31/1832               1 31 U.… <NA>    8 L. E…
    ##  9 1834-… 1834-06… 1834-063-01… 1/30/1834               1 33 U.… <NA>    8 L. E…
    ## 10 1835-… 1835-00… 1835-009-01… 1/31/1835               2 34 U.… <NA>    9 L. E…
    ## # ℹ 1,910 more rows
    ## # ℹ 47 more variables: lexisCite <chr>, term <dbl>, naturalCourt <dbl>,
    ## #   chief <chr>, docket <chr>, caseName <chr>, dateArgument <chr>,
    ## #   dateRearg <chr>, petitioner <dbl>, petitionerState <dbl>, respondent <dbl>,
    ## #   respondentState <dbl>, jurisdiction <dbl>, adminAction <dbl>,
    ## #   adminActionState <dbl>, threeJudgeFdc <dbl>, caseOrigin <dbl>,
    ## #   caseOriginState <dbl>, caseSource <dbl>, caseSourceState <dbl>, …

``` r
petitioner_summary <- relevant_states %>%
  count(petitionerState)
petitioner_summary
```

    ## # A tibble: 21 × 2
    ##    petitionerState     n
    ##              <dbl> <int>
    ##  1               1     1
    ##  2               4    13
    ##  3               5     2
    ##  4               6   267
    ##  5               9     1
    ##  6              12    70
    ##  7              22     1
    ##  8              26     2
    ##  9              32     1
    ## 10              35     8
    ## # ℹ 11 more rows
…
